{
  "type": "object",
  "required": ["name", "id"],
  "properties": {
    "id": {
      "type": ["integer", "string"]
    },
    "name": {
      "type": "string"
    }
  },
  "additionalProperties": false
}
